{
    "output": {
        "blocklist": [],
        "compressor#0": {
            "attack": 20.0,
            "boost-amount": 6.0,
            "boost-threshold": -72.0,
            "bypass": false,
            "dry": -100.0,
            "hpf-frequency": 10.0,
            "hpf-mode": "off",
            "input-gain": 0.0,
            "knee": -9.0,
            "lpf-frequency": 20000.0,
            "lpf-mode": "off",
            "makeup": 0.0,
            "mode": "Downward",
            "output-gain": 0.0,
            "ratio": 4.0,
            "release": 100.0,
            "release-threshold": -100.0,
            "sidechain": {
                "lookahead": 0.0,
                "mode": "RMS",
                "preamp": 0.0,
                "reactivity": 10.0,
                "source": "Middle",
                "type": "Feed-forward"
            },
            "threshold": -22.0,
            "wet": 0.0
        },
        "equalizer#0": {
            "balance": 0.0,
            "bypass": false,
            "input-gain": 8.4,
            "left": {
                "band0": {
                    "frequency": 36.82695795279726,
                    "gain": -30.75,
                    "mode": "RLC (BT)",
                    "mute": true,
                    "q": 1.0942844825578018,
                    "slope": "x1",
                    "solo": false,
                    "type": "Bell"
                },
                "band1": {
                    "frequency": 98.79552525291243,
                    "gain": -23.97,
                    "mode": "RLC (BT)",
                    "mute": false,
                    "q": 1.0942844825578015,
                    "slope": "x1",
                    "solo": false,
                    "type": "Bell"
                },
                "band2": {
                    "frequency": 265.0383401884401,
                    "gain": 0.0,
                    "mode": "RLC (BT)",
                    "mute": false,
                    "q": 1.0942844825578015,
                    "slope": "x1",
                    "solo": false,
                    "type": "Bell"
                },
                "band3": {
                    "frequency": 711.0172408114458,
                    "gain": 0.0,
                    "mode": "RLC (BT)",
                    "mute": false,
                    "q": 1.0942844825578015,
                    "slope": "x1",
                    "solo": false,
                    "type": "Bell"
                },
                "band4": {
                    "frequency": 1907.4429622962575,
                    "gain": 0.0,
                    "mode": "RLC (BT)",
                    "mute": false,
                    "q": 1.0942844825578013,
                    "slope": "x1",
                    "solo": false,
                    "type": "Bell"
                },
                "band5": {
                    "frequency": 5117.089214688074,
                    "gain": 0.0,
                    "mode": "RLC (BT)",
                    "mute": false,
                    "q": 1.0942844825578015,
                    "slope": "x1",
                    "solo": false,
                    "type": "Bell"
                },
                "band6": {
                    "frequency": 13727.59372031493,
                    "gain": 0.0,
                    "mode": "RLC (BT)",
                    "mute": false,
                    "q": 1.0942844825578015,
                    "slope": "x1",
                    "solo": false,
                    "type": "Bell"
                }
            },
            "mode": "IIR",
            "num-bands": 7,
            "output-gain": 0.0,
            "pitch-left": 0.0,
            "pitch-right": 0.0,
            "right": {
                "band0": {
                    "frequency": 36.82695795279726,
                    "gain": -30.75,
                    "mode": "RLC (BT)",
                    "mute": true,
                    "q": 1.0942844825578018,
                    "slope": "x1",
                    "solo": false,
                    "type": "Bell"
                },
                "band1": {
                    "frequency": 98.79552525291243,
                    "gain": -23.97,
                    "mode": "RLC (BT)",
                    "mute": false,
                    "q": 1.0942844825578015,
                    "slope": "x1",
                    "solo": false,
                    "type": "Bell"
                },
                "band2": {
                    "frequency": 265.0383401884401,
                    "gain": 0.0,
                    "mode": "RLC (BT)",
                    "mute": false,
                    "q": 1.0942844825578015,
                    "slope": "x1",
                    "solo": false,
                    "type": "Bell"
                },
                "band3": {
                    "frequency": 711.0172408114458,
                    "gain": 0.0,
                    "mode": "RLC (BT)",
                    "mute": false,
                    "q": 1.0942844825578015,
                    "slope": "x1",
                    "solo": false,
                    "type": "Bell"
                },
                "band4": {
                    "frequency": 1907.4429622962575,
                    "gain": 0.0,
                    "mode": "RLC (BT)",
                    "mute": false,
                    "q": 1.0942844825578013,
                    "slope": "x1",
                    "solo": false,
                    "type": "Bell"
                },
                "band5": {
                    "frequency": 5117.089214688074,
                    "gain": 0.0,
                    "mode": "RLC (BT)",
                    "mute": false,
                    "q": 1.0942844825578015,
                    "slope": "x1",
                    "solo": false,
                    "type": "Bell"
                },
                "band6": {
                    "frequency": 13727.59372031493,
                    "gain": 0.0,
                    "mode": "RLC (BT)",
                    "mute": false,
                    "q": 1.0942844825578015,
                    "slope": "x1",
                    "solo": false,
                    "type": "Bell"
                }
            },
            "split-channels": false
        },
        "plugins_order": [
            "rnnoise#0",
            "equalizer#0",
            "compressor#0"
        ],
        "rnnoise#0": {
            "bypass": false,
            "input-gain": 0.0,
            "model-path": "",
            "output-gain": 0.0
        }
    }
}
